<?xml version="1.0" encoding="utf-8"?>
<!-- Generator: Adobe Illustrator 22.0.1, SVG Export Plug-In . SVG Version: 6.00 Build 0)  -->
<svg version="1.1" id="Capa_1" xmlns="http://www.w3.org/2000/svg" xmlns:xlink="http://www.w3.org/1999/xlink" x="0px" y="0px"
	 viewBox="0 0 480 480" style="enable-background:new 0 0 480 480;" xml:space="preserve">
<style type="text/css">
	.st0{fill:url(#SVGID_1_);}
	.st1{fill:url(#SVGID_2_);}
	.st2{fill:url(#SVGID_3_);}
</style>
<g>
	<g>
		<g>
			<linearGradient id="SVGID_1_" gradientUnits="userSpaceOnUse" x1="177.7801" y1="469.3687" x2="118.7801" y2="-10.6313">
				<stop  offset="0" style="stop-color:#4B8AFD"/>
				<stop  offset="1" style="stop-color:#873CF8"/>
			</linearGradient>
			<path class="st0" d="M312,312h-40c-8.8,0-16-7.2-16-16c8.8,0,16-7.2,16-16v-8c0-22.1-17.9-40-40-40s-40,17.9-40,40v8
				c0,8.8,7.2,16,16,16c0,8.8-7.2,16-16,16h-24v-32c0-13.3-10.7-24-24-24c-8.8,0-16,7.2-16,16h-16c-8.8,0-16-7.2-16-16v-16
				c0-8.8,7.2-16,16-16h16c0,8.8,7.2,16,16,16c13.3,0,24-10.7,24-24v-48c0-4.4-3.6-8-8-8C71.6,160,0,231.6,0,320s71.6,160,160,160
				s160-71.6,160-160C320,315.6,316.4,312,312,312z M152,176.2V216c0,4.4-3.6,8-8,8c0-8.8-7.2-16-16-16h-16c-17.7,0-32,14.3-32,32
				v16c0,17.7,14.3,32,32,32h16c8.8,0,16-7.2,16-16c4.4,0,8,3.6,8,8v32h-32c-13.3,0-24,10.7-24,24c0,8.8,7.2,16,16,16v16
				c0,8.8-7.2,16-16,16H80c-8.8,0-16-7.2-16-16v-16c8.8,0,16-7.2,16-16c0-13.3-10.7-24-24-24H16.2C20.4,238.8,78.8,180.4,152,176.2z
				 M152,424v39.8C78.8,459.6,20.4,401.2,16.2,328H56c4.4,0,8,3.6,8,8c-8.8,0-16,7.2-16,16v16c0,17.7,14.3,32,32,32h16
				c17.7,0,32-14.3,32-32v-16c0-8.8-7.2-16-16-16c0-4.4,3.6-8,8-8h32v16c0,17.7,14.3,32,32,32c8.8,0,16-7.2,16-16h8
				c13.3,0,24,10.7,24,24s-10.7,24-24,24h-8c0-8.8-7.2-16-16-16C166.3,392,152,406.3,152,424z M168,463.8V424c0-8.8,7.2-16,16-16
				c0,8.8,7.2,16,16,16h8c22.1,0,40-17.9,40-40s-17.9-40-40-40h-8c-8.8,0-16,7.2-16,16c-8.8,0-16-7.2-16-16v-16h24
				c17.7,0,32-14.3,32-32c0-8.8-7.2-16-16-16v-8c0-13.3,10.7-24,24-24s24,10.7,24,24v8c-8.8,0-16,7.2-16,16c0,17.7,14.3,32,32,32
				h31.8C299.6,401.2,241.2,459.6,168,463.8z"/>
			<linearGradient id="SVGID_2_" gradientUnits="userSpaceOnUse" x1="332.2888" y1="450.377" x2="273.2888" y2="-29.623">
				<stop  offset="0" style="stop-color:#4B8AFD"/>
				<stop  offset="1" style="stop-color:#873CF8"/>
			</linearGradient>
			<path class="st1" d="M367.6,168.6c2.8,38.8-10.3,77-36.3,106L308.9,252c-6.2-6.3-6.2-16.3-0.1-22.6c6.3,6.3,16.4,6.3,22.7,0
				l5.8-5.8c14.9-16.3,13.8-41.6-2.5-56.5c-15.4-14-38.9-14-54.2,0.2l-5.7,5.6c-3,3-4.7,7-4.7,11.3c0,4.3,1.7,8.4,4.7,11.4
				c-6.2,6.2-16.4,6.2-22.6,0l-17-17l22.7-22.6c9.4-9.4,9.4-24.6,0-33.9c-3-3-7-4.7-11.3-4.7h0c-4.2,0-8.3,1.7-11.3,4.7L224,110.7
				c-6.2-6.2-6.2-16.2-0.1-22.5L224,88l11.4-11.3c6.4-6.3,16.6-6.3,23-0.1l11.2,11.2c0,0-0.1-0.1,0,0.1c-6.2,6.3-6.2,16.3,0,22.6
				c4.5,4.5,10.6,7,17,7c6.4,0,12.5-2.5,17-7l28.1-28c2.8,3.3,5.5,6.6,8,10.1l13-9.3c-4.5-6.3-9.6-12.3-15-17.9
				c-1.5-1.5-3.5-2.4-5.7-2.4c-2.1,0-4.2,0.9-5.7,2.3l-34,33.9c-1.5,1.5-3.5,2.3-5.6,2.3c-2.1,0-4.1-0.8-5.6-2.3
				c5.1-5,6.2-12.7,2.7-18.9c-0.7-1.4-1.6-2.7-2.7-3.7l-11.3-11.3c-12.7-12.4-33-12.4-45.6,0.1l-11.4,11.3l-0.1,0.1
				c-12.5,12.5-12.4,32.8,0.1,45.3l11.4,11.3c6.3,6.2,16.4,6.2,22.6,0c3.1,3.1,3.1,8.2,0,11.3c0,0,0,0,0,0l-28.3,28.2
				c-3.1,3.1-3.1,8.2,0,11.3c0,0,0,0,0,0l22.6,22.6c12.5,12.5,32.7,12.5,45.2,0c6.2-6.3,6.2-16.4-0.1-22.6l5.6-5.5
				c9.6-9.2,24.8-8.8,33.9,0.8c8.8,9.2,8.9,23.7,0.2,33l-5.7,5.7c-6.2-6.2-16.3-6.2-22.6,0c-12.5,12.5-12.5,32.7,0,45.2l28.3,28.3
				c3.1,3.1,8.2,3.1,11.3,0c32.8-32.7,49.7-78,46.4-124.2L367.6,168.6z"/>
			<linearGradient id="SVGID_3_" gradientUnits="userSpaceOnUse" x1="420.14" y1="439.5786" x2="361.14" y2="-40.4214">
				<stop  offset="0" style="stop-color:#4B8AFD"/>
				<stop  offset="1" style="stop-color:#873CF8"/>
			</linearGradient>
			<path class="st2" d="M472,0H317.2c-10.6,0-20.8,4.2-28.3,11.7l-30.6,30.6l11.3,11.3L300.3,23c4.5-4.5,10.6-7,17-7H464v96h-16
				c-2.5,0-4.9,1.2-6.4,3.2L420,144h-76v-8c0-10.2,6.6-19.3,16.3-22.7c2.5-0.9,5.1-1.4,7.7-1.3c17.7,0,32-14.3,32-32V64
				c0-17.7-14.3-32-32-32h-34.8c-10.6,0-20.8,4.2-28.3,11.7l-22.6,22.6l11.3,11.3L316.3,55c4.5-4.5,10.6-7,17-7H368
				c8.8,0,16,7.2,16,16v16c0,8.8-7.2,16-16,16h-0.1c-4.4,0-8.8,0.8-13,2.3C338.8,103.9,328,119,328,136v16c0,4.4,3.6,8,8,8h88
				c2.5,0,4.9-1.2,6.4-3.2L452,128h20c4.4,0,8-3.6,8-8V8C480,3.6,476.4,0,472,0z"/>
		</g>
	</g>
</g>
</svg>
