<?xml version="1.0" encoding="utf-8"?>
<!-- Generator: Adobe Illustrator 22.0.1, SVG Export Plug-In . SVG Version: 6.00 Build 0)  -->
<svg version="1.1" id="Capa_1" xmlns="http://www.w3.org/2000/svg" xmlns:xlink="http://www.w3.org/1999/xlink" x="0px" y="0px"
	 viewBox="0 0 480 480" style="enable-background:new 0 0 480 480;" xml:space="preserve">
<style type="text/css">
	.st0{fill:url(#SVGID_1_);}
	.st1{fill:url(#SVGID_2_);}
	.st2{fill:url(#SVGID_3_);}
	.st3{fill:url(#SVGID_4_);}
	.st4{fill:url(#SVGID_5_);}
	.st5{fill:url(#SVGID_6_);}
	.st6{fill:url(#SVGID_7_);}
	.st7{fill:url(#SVGID_8_);}
	.st8{fill:url(#SVGID_9_);}
</style>
<linearGradient id="SVGID_1_" gradientUnits="userSpaceOnUse" x1="266.2147" y1="453.5493" x2="189.2146" y2="17.5492">
	<stop  offset="0" style="stop-color:#4B8AFD"/>
	<stop  offset="1" style="stop-color:#873CF8"/>
</linearGradient>
<path class="st0" d="M392,304h-16v-8c0-13.3-10.7-24-24-24v-40c0-4.4-3.6-8-8-8c-2.1,0-4.2,0.8-5.7,2.3l-27.5,27.5
	C287.4,239.5,260.4,232,233,232c-70.6-0.5-129,45.3-136.2,104H96c-4.4,0-8-3.6-8-8v-8H72v8c0,13.3,10.7,24,24,24h0.3
	c1.8,31,16.6,59.7,40.7,79.2l-1,40.6c-0.1,4.4,3.4,8.1,7.8,8.2c0.1,0,0.1,0,0.2,0h24c2,0,4-0.8,5.5-2.2l20-18.7
	c27.8,7.1,57,6.4,84.4-2l20.5,20.5c1.5,1.5,3.5,2.3,5.7,2.3h24c4.4,0,8-3.6,8-8v-40h16c13.3,0,24-10.7,24-24v-8h16
	c13.3,0,24-10.7,24-24v-48C416,314.7,405.3,304,392,304z M400,376c0,4.4-3.6,8-8,8h-32c-4.4,0-8-3.6-8-8v-8h-16v8
	c0,13.3,10.7,24,24,24v8c0,4.4-3.6,8-8,8h-24c-4.4,0-8,3.6-8,8v40h-12.7l-21.7-21.7c-2.2-2.2-5.3-2.9-8.2-1.9
	c-27.1,9.3-56.5,10-84,2.1c-2.7-0.8-5.6-0.1-7.7,1.9L164.8,464h-12.6l0.9-36.4c0.1-2.6-1.2-5.1-3.3-6.6
	c-23.2-17.2-37.2-44.1-37.9-72.9c0-55.1,53.8-100,120-100h0.9c26.6,0,52.6,7.9,74.6,22.7c3.2,2.1,7.4,1.7,10.1-1l18.3-18.3V280
	c0,4.4,3.6,8,8,8h8c4.4,0,8,3.6,8,8v16c0,4.4,3.6,8,8,8h24c4.4,0,8,3.6,8,8v48H400z"/>
<linearGradient id="SVGID_2_" gradientUnits="userSpaceOnUse" x1="264.2476" y1="453.8966" x2="187.2476" y2="17.8966">
	<stop  offset="0" style="stop-color:#4B8AFD"/>
	<stop  offset="1" style="stop-color:#873CF8"/>
</linearGradient>
<path class="st1" d="M189.3,271.3l5.4,15.1c24.1-8.6,50.5-8.6,74.6,0l5.4-15.1C247.1,261.5,216.9,261.5,189.3,271.3z"/>
<linearGradient id="SVGID_3_" gradientUnits="userSpaceOnUse" x1="159.3422" y1="472.4235" x2="82.3422" y2="36.4235">
	<stop  offset="0" style="stop-color:#4B8AFD"/>
	<stop  offset="1" style="stop-color:#873CF8"/>
</linearGradient>
<path class="st2" d="M145,337.6l-15.7-3.2c-0.9,4.5-1.4,9-1.4,13.6h16C144,344.5,144.4,341,145,337.6z"/>
<linearGradient id="SVGID_4_" gradientUnits="userSpaceOnUse" x1="167.3539" y1="471.0086" x2="90.3539" y2="35.0086">
	<stop  offset="0" style="stop-color:#4B8AFD"/>
	<stop  offset="1" style="stop-color:#873CF8"/>
</linearGradient>
<path class="st3" d="M149.9,372.3l-14.2,7.4c5.9,11.3,14.2,21.1,24.2,28.8l9.7-12.7C161.4,389.5,154.7,381.5,149.9,372.3z"/>
<linearGradient id="SVGID_5_" gradientUnits="userSpaceOnUse" x1="390.0711" y1="431.6755" x2="313.0711" y2="-4.3245">
	<stop  offset="0" style="stop-color:#4B8AFD"/>
	<stop  offset="1" style="stop-color:#873CF8"/>
</linearGradient>
<rect x="368" y="344" class="st4" width="16" height="16"/>
<linearGradient id="SVGID_6_" gradientUnits="userSpaceOnUse" x1="345.8094" y1="439.4924" x2="268.8094" y2="3.4924">
	<stop  offset="0" style="stop-color:#4B8AFD"/>
	<stop  offset="1" style="stop-color:#873CF8"/>
</linearGradient>
<path class="st5" d="M312,328h16c0-4.4,3.6-8,8-8v-16C322.7,304,312,314.7,312,328z"/>
<linearGradient id="SVGID_7_" gradientUnits="userSpaceOnUse" x1="287.4196" y1="449.8044" x2="210.4196" y2="13.8043">
	<stop  offset="0" style="stop-color:#4B8AFD"/>
	<stop  offset="1" style="stop-color:#873CF8"/>
</linearGradient>
<path class="st6" d="M152,136c0,44.2,35.8,80,80,80s80-35.8,80-80s-35.8-80-80-80S152,91.8,152,136z M296,136c0,35.3-28.7,64-64,64
	s-64-28.7-64-64s28.7-64,64-64S296,100.7,296,136z"/>
<linearGradient id="SVGID_8_" gradientUnits="userSpaceOnUse" x1="288.2754" y1="449.6532" x2="211.2754" y2="13.6532">
	<stop  offset="0" style="stop-color:#4B8AFD"/>
	<stop  offset="1" style="stop-color:#873CF8"/>
</linearGradient>
<path class="st7" d="M136,160h-8V48h72c2.1,0,4.2-0.8,5.7-2.3L235.3,16H296v8c0,4.4-3.6,8-8,8h-16v16h96c4.4,0,8,3.6,8,8s-3.6,8-8,8
	h-56v16h64c4.4,0,8,3.6,8,8s-3.6,8-8,8h-48v16h32c4.4,0,8,3.6,8,8s-3.6,8-8,8h-24v16h8c4.4,0,8,3.6,8,8s-3.6,8-8,8h-16v16h16
	c13.2,0,24-10.6,24-23.8c0-3.1-0.6-6.2-1.8-9.1c12.7-3.3,20.3-16.3,17-29.1c-0.3-1-0.6-2-1-2.9c12.7-3.4,20.3-16.4,17-29.2
	c-1.6-5.9-5.3-10.9-10.4-14.1c2.1-3.6,3.2-7.6,3.2-11.8c0-13.3-10.7-24-24-24h-57.5c0.9-2.6,1.4-5.3,1.5-8V8c0-4.4-3.6-8-8-8h-72
	c-2.1,0-4.2,0.8-5.7,2.3L196.7,32H64v16h48v112H64v16h72V160z"/>
<linearGradient id="SVGID_9_" gradientUnits="userSpaceOnUse" x1="132.259" y1="477.2066" x2="55.259" y2="41.2066">
	<stop  offset="0" style="stop-color:#4B8AFD"/>
	<stop  offset="1" style="stop-color:#873CF8"/>
</linearGradient>
<rect x="64" y="128" class="st8" width="16" height="16"/>
</svg>
