<?xml version="1.0" standalone="no"?>
<!DOCTYPE svg PUBLIC "-//W3C//DTD SVG 1.1//EN" "http://www.w3.org/Graphics/SVG/1.1/DTD/svg11.dtd">
<svg xmlns="http://www.w3.org/2000/svg">
<metadata>Copyright (C) 2018 by original authors @ fontello.com</metadata>
<defs>
<font id="fontello" horiz-adv-x="1000" >
<font-face font-family="fontello" font-weight="400" font-stretch="normal" units-per-em="1000" ascent="850" descent="-150" />
<missing-glyph horiz-adv-x="1000" />
<glyph glyph-name="twitter" unicode="&#xe800;" d="M456 539q0 80 57 135t137 56q85 0 139-59 60 13 122 45-20-67-83-106 53 8 110 31-39-58-97-101l0-24q0-136-60-255-60-121-190-206t-296-85q-162 0-295 86 20-2 48-2 133 0 237 81-65 1-113 40t-66 95q13-5 35-5t50 6q-65 14-108 67t-44 125q36-20 86-24-86 60-86 161 0 48 26 95 158-191 398-199-7 22-7 43z" horiz-adv-x="938" />

<glyph glyph-name="facebook" unicode="&#xe801;" d="M313 454l156 0 0-156-156 0 0-364-157 0 0 364-156 0 0 156 156 0 0 66q0 50 16 102t43 81q58 64 145 64l109 0 0-157-109 0q-20 0-34-13t-13-33l0-110z" horiz-adv-x="469" />

<glyph glyph-name="github-circled-alt2" unicode="&#xf056;" d="M0 350q0-130 63-235 63-109 171-171t235-63q127 0 235 63 109 63 171 171t62 235q0 129-62 235-63 109-171 171t-235 62q-130 0-235-63-109-63-171-171t-63-234z m78 0q0 78 31 151t84 125q53 53 125 84t151 30 150-30 126-84q53-53 83-125t31-151q0-84-34-160t-97-132-142-80v138q0 51-42 80 103 9 150 52t48 136q0 72-45 121 9 27 9 51 0 36-16 67-33 0-59-11t-63-37q-46 10-94 10-55 0-103-11-37 27-63 38t-61 11q-16-31-16-67 0-25 9-51-45-48-45-121 0-93 48-136t151-52q-27-19-38-54-24-8-50-8-19 0-34 8-4 3-8 5t-7 7-7 6-6 8-5 7-6 7-5 7q-23 30-55 30-17 0-17-7 0-3 9-10 15-13 16-14 12-10 13-12 14-18 22-39 27-61 93-61 11 0 42 5v-103q-80 25-142 80t-96 132-35 160z" horiz-adv-x="937.5" />

<glyph glyph-name="reddit" unicode="&#xf1a1;" d="M611 199q9-9 0-17-34-35-111-35t-111 35q-9 8 0 17 3 3 8 3t9-3q27-28 94-28 67 0 94 28 4 3 9 3t8-3z m-171 101q0-21-15-35t-35-15-35 15-15 35q0 21 15 36t35 14 35-15 15-35z m220 0q0-21-15-35t-35-15-35 15-15 35 15 35 35 15 35-14 15-36z m140 67q0 27-19 47t-48 19-48-20q-72 50-173 54l35 158 112-26q0-20 14-35t35-14 36 15 14 35-14 35-36 15q-30 0-44-28l-124 28q-10 3-14-9l-38-174q-101-4-173-54-19 20-48 20-28 0-48-19t-19-47q0-20 10-36t28-24q-4-16-4-32 0-79 79-135t188-57q110 0 188 57t78 135q0 18-4 32 17 8 27 24t10 36z m200-17q0-102-40-194t-106-160-160-106-194-40-194 40-160 106-106 160-40 194 40 194 106 160 160 106 194 40 194-40 160-106 106-160 40-194z" horiz-adv-x="1000" />

<glyph glyph-name="medium" unicode="&#xf23a;" d="M333 615v-655q0-14-7-23t-20-10q-10 0-19 4l-259 131q-12 5-20 18t-8 26v636q0 12 6 19t16 8q8 0 24-8l286-143q1-2 1-3z m36-56l298-484-298 149v335z m631-10v-589q0-14-8-22t-21-9-26 7l-246 123z m-2 67q0-2-143-234t-167-272l-218 353 181 294q9 16 29 16 8 0 14-3l302-151q2-1 2-3z" horiz-adv-x="1000" />

<glyph glyph-name="telegram" unicode="&#xf2c6;" d="M664 121l82 386q5 25-6 36t-29 3l-482-185q-16-6-22-14t-2-15 18-11l124-38 286 180q12 8 18 3 4-3-3-8l-231-210-9-127q13 0 25 13l60 58 125-93q36-20 46 22z m336 229q0-102-40-194t-106-160-160-106-194-40-194 40-160 106-106 160-40 194 40 194 106 160 160 106 194 40 194-40 160-106 106-160 40-194z" horiz-adv-x="1000" />
</font>
</defs>
</svg>